// Jest Snapshot v1, https://goo.gl/fbAQLP

exports[`Navbar Initialization should match snapshot 1`] = `
<nav
  className="navbar navbar-expand navbar-dark bg-primary fixed-top"
>
  <a
    className="navbar-brand"
    href="/"
    onClick={[Function]}
  >
    Lode.com
  </a>
  <div
    className="mr-auto navbar-nav"
    onKeyDown={[Function]}
  >
    <a
      className="nav-link"
      data-rb-event-key={null}
      data-testid="home-link"
      disabled={false}
      href="/"
      onClick={[Function]}
    >
      Home
    </a>
    <a
      className="nav-link"
      data-rb-event-key={null}
      data-testid="play-link"
      disabled={false}
      href="/play"
      onClick={[Function]}
    >
      Play
    </a>
  </div>
  <app-user-info />
  <a
    className="btn btn-success ml-3"
    href="/play"
    onClick={[Function]}
  >
    Chơi ngay
  </a>
</nav>
`;
